identifiant_convention;montant_ttc;montant_total_remunerations_liees;nombre_remunerations_liees;montant_total_avantages_lies;nombre_avantages_lies
A;10;20.0;2.0;0.0;0.0
C;30;0;0;0;0
D;;0;0;20;1
E;;0;0;0;0