Type d'identifiant PP|Identifiant PP|Identification nationale PP|Code civilité d'exercice|Libellé civilité d'exercice|Code civilité|Libellé civilité|Nom d'exercice|Prénom d'exercice|Code profession|Libellé profession|Code catégorie professionnelle|Libellé catégorie professionnelle|Code type savoir-faire|Libellé type savoir-faire|Code savoir-faire|Libellé savoir-faire|Code mode exercice|Libellé mode exercice|Numéro SIRET site|Numéro SIREN site|Numéro FINESS site|Numéro FINESS établissement juridique|Identifiant technique de la structure|Raison sociale site|Enseigne commerciale site|Complément destinataire (coord. structure)|Complément point géographique (coord. structure)|Numéro Voie (coord. structure)|Indice répétition voie (coord. structure)|Code type de voie (coord. structure)|Libellé type de voie (coord. structure)|Libellé Voie (coord. structure)|Mention distribution (coord. structure)|Bureau cedex (coord. structure)|Code postal (coord. structure)|Code commune (coord. structure)|Libellé commune (coord. structure)|Code pays (coord. structure)|Libellé pays (coord. structure)|Téléphone (coord. structure)|Téléphone 2 (coord. structure)|Télécopie (coord. structure)|Adresse e-mail (coord. structure)|Code Département (structure)|Libellé Département (structure)|Ancien identifiant de la structure|Autorité d'enregistrement|
0|016057234|0016057234|||MME|Madame|BUNET|Monique|60|Infirmier|C|Civil|||||S|Salarié|26010004500012||010000024|010780054|F010000024|CENTRE HOSPITALIER DE FLEYRIAT||||900||RTE|Route|DE PARIS|CS 90401|01012 BOURG EN BRESSE CEDEX|01012|01053|Bourg-en-Bresse|||0474454647||0474454114||||1010000024|ARS/ARS/ARS|
0|016063372|0016063372|||MME|Madame|DIZIAIN|Brigitte|60|Infirmier|C|Civil|||||S|Salarié|26010004500012||010000024|010780054|F010000024|CENTRE HOSPITALIER DE FLEYRIAT||||900||RTE|Route|DE PARIS|CS 90401|01012 BOURG EN BRESSE CEDEX|01012|01053|Bourg-en-Bresse|||0474454647||0474454114||||1010000024|ARS/ARS/ARS|
0|016067670|0016067670|||MME|Madame|BERTHET BONDET|Rachel|60|Infirmier|C|Civil|||||S|Salarié|26011021800112||010005239|010008407|F010005239|CH DU HAUT BUGEY - GEOVREISSET||||1||RTE|Route|DE VEYZIAT|BP 818|01108 OYONNAX CEDEX|01108|01283|Oyonnax|||0474731001||0474731002||||1010005239|ARS/ARS/ARS|
0|016068074|0016068074|||MME|Madame|BOUILLET|Cristina|60|Infirmier|C|Civil|||||S|Salarié|77220148900022||010780195|010000156|F010780195|CLINIQUE CONVERT||||62||AV|Avenue|DE JASSERON|BP 132|01000 BOURG EN BRESSE|01000|01053|Bourg-en-Bresse|||0474456445||0474452656||||1010780195|ARS/ARS/ARS|
0|016675092|0016675092|||MME|Madame|MORENO|SYLVIA|60|Infirmier|C|Civil|||||L|Libéral|||||C01667509200|CABINET INFIRMIER MME MORENO||CABINET INFIRMIER MME MORENO|MME DI BENEDETTO CAROLE|55||R|Rue|BERTHELOT||01500 AMBERIEU EN BUGEY|01500|||||0680113119||||||001667509200|ARS/CPAM/CPAM|
0|016675134|0016675134|||MME|Madame|BURDY|Sandrine|60|Infirmier|C|Civil|||||S|Salarié|77554456200108||010000495|010783009|F010000495|CENTRE PSYCHOTHERAPIQUE DE L'AIN||||||AV|Avenue|DE MARBOZ||01012 BOURG EN BRESSE CEDEX|01012|01053|Bourg-en-Bresse|||0474522911||0474522899||||1010000495|ARS/ARS/ARS|
0|016675704|0016675704|||MME|Madame|BISIAUX|Benedicte|60|Infirmier|C|Civil|||||S|Salarié|26011021800112||010005239|010008407|F010005239|CH DU HAUT BUGEY - GEOVREISSET||||1||RTE|Route|DE VEYZIAT|BP 818|01108 OYONNAX CEDEX|01108|01283|Oyonnax|||0474731001||0474731002||||1010005239|ARS/ARS/ARS|
0|016680100|0016680100|||MME|Madame|RAVAT|SOPHIE|60|Infirmier|C|Civil|||||L|Libéral|||||C01668010000|CABINET INFIRMIER MME RAVAT||CABINET INFIRMIER MME RAVAT||10||R|Rue|DU BUGEY||01360 LOYETTES|01360|||||0472058765||||||001668010000|ARS/CPAM/CPAM|
0|016696213|0016696213|||MME|Madame|CARREIRA|Ana Isabel|60|Infirmier|C|Civil|||||S|Salarié|26010007800039||010780930|010000362|F010780930|EHPAD FONDATION COSTAZ CHAMPAGNE||||116||AV|Avenue|DES FRÈRES COSTAZ||01260 CHAMPAGNE EN VALROMEY|01260|01079|Champagne-en-Valromey|||0479876141||0479875041|mdrcostaz@wanadoo.fr|||1010780930|ARS/ARS/ARS|
0|016702698|0016702698|||M|Monsieur|BERARDAN|Martin|60|Infirmier|C|Civil|||||S|Salarié|77554456200108||010000495|010783009|F010000495|CENTRE PSYCHOTHERAPIQUE DE L'AIN||||||AV|Avenue|DE MARBOZ||01012 BOURG EN BRESSE CEDEX|01012|01053|Bourg-en-Bresse|||0474522911||0474522899||||1010000495|ARS/ARS/ARS|
0|016716391|0016716391|||MME|Madame|MAHUET|JULIE|60|Infirmier|C|Civil|||||L|Libéral|||||C01671639100|CABINET INFIRMIER MME MAHUET||CABINET INFIRMIER MME MAHUET||97||R|Rue|DE LA MAIRIE||01600 ST DIDIER DE FORMANS|01600|||||0684792618||||||001671639100|ARS/CPAM/CPAM|
0|016950065|0016950065|||M|Monsieur|CREUZE DES CHATELLIERS|Pierre|60|Infirmier|C|Civil|||||S|Salarié|77554456200108||010000495|010783009|F010000495|CENTRE PSYCHOTHERAPIQUE DE L'AIN||||||AV|Avenue|DE MARBOZ||01012 BOURG EN BRESSE CEDEX|01012|01053|Bourg-en-Bresse|||0474522911||0474522899||||1010000495|ARS/ARS/ARS|
0|019102607|0019102607|||MME|Madame|PROTON-GREJON|CELINE|91|Orthophoniste|C|Civil|||||L|Libéral|||||C01910260700|CABINET MME PROTON GREJON||CABINET MME PROTON GREJON||458||R|Rue|DE DOMBES|RESIDENCE L ECRIN DE DOMB|01330 VILLARS LES DOMBES|01330|||||0474981812||||||001910260700|ARS/CPAM/CPAM|
0|019200377|0019200377|||MME|Madame|PEIGNE|Aude|92|Orthoptiste|C|Civil|||||S|Salarié|31550201300057||010003689|010785947|F010003689|SIAAM01 - SAFEP - SAAAIS||||1||R|Rue|DES DIMES||01000 BOURG EN BRESSE|01000|01053|Bourg-en-Bresse|||0474228598||0474220171|siaam01@wanadoo.fr|||1010003689|ARS/ARS/ARS|
0|026041848|0026041848|||MME|Madame|DUBOIS|LINETTE|60|Infirmier|C|Civil|||||L|Libéral|||||C02604184800|CABINET INFIRMIER MME DUBOIS||CABINET INFIRMIER MME DUBOIS|CABINET PARAMEDICAL DE VAUX|3||R|Rue|CONDORCET||02000 LAON|02000|||||0323203761||||||002604184800|ARS/CPAM/CPAM|
0|026058271|0026058271|||MME|Madame|FRITTE|Noella|60|Infirmier|C|Civil|||||S|Salarié|26020862400015||020000519|020000261|F020000519|CH SOISSONS||||46||AV|Avenue|DU GÉNÉRAL DE GAULLE||02209 SOISSONS CEDEX|02209|02722|Soissons|||0323757070||0323591646|secretariat.direction@ch-soissons.fr|||1020000519|ARS/ARS/ARS|
0|026061176|0026061176|||MLLE|Mademoiselle|BRUYELLE|Michele|60|Infirmier|C|Civil|||||S|Salarié|26020007600016||020001087|020004495|F020001087|CH HIRSON||||40||R|Rue|AUX LOUPS||02500 HIRSON|02500|02381|Hirson|||0323588282||0323588247|direction@ch-hirson.fr|||1020001087|ARS/ARS/ARS|
0|026061283|0026061283|||MME|Madame|ALFIER|Valerie|60|Infirmier|C|Civil|||||S|Salarié|31078546400051||020012407|020007423|F020012407|SPASAD ADMR MONTCORNET||||8||R|Rue|DU RUISSEAU||02340 MONTCORNET|02340|02502|Montcornet|||0323216925||0323791901|ssiadmontcornet@wanadoo.fr|||1020012407|ARS/ARS/ARS|
0|026067462|0026067462|||MME|Madame|GAUDY|Yvette|60|Infirmier|C|Civil|||||S|Salarié|26020862400015||020000519|020000261|F020000519|CH SOISSONS||||46||AV|Avenue|DU GÉNÉRAL DE GAULLE||02209 SOISSONS CEDEX|02209|02722|Soissons|||0323757070||0323591646|secretariat.direction@ch-soissons.fr|||1020000519|ARS/ARS/ARS|
0|026073999|0026073999|||MME|Madame|FILLET|Marie-Claude|60|Infirmier|C|Civil|||||S|Salarié|77554727600268||020004222|020005179|F020004222|CS AMSAM SOISSONS||||31||R|Rue|ANNE MORGAN||02200 SOISSONS|02200|02722|Soissons|||0323755108||0323755101|ggranger@amsam.fr|||1020004222|ARS/ARS/ARS|
0|026085357|0026085357|||MME|Madame|VAQUEZ|Isabelle|60|Infirmier|C|Civil|||||S|Salarié|26020861600011||020000162|020000063|F020000162|CH SAINT-QUENTIN||||1||R|Rue|MICHEL DE L'HOSPITAL|BP 608|02321 ST QUENTIN CEDEX|02321|02691|Saint-Quentin|||0323067330||0323067301|directiongenerale@ch-stquentin.fr|||1020000162|ARS/ARS/ARS|
0|026097907|0026097907|||MLLE|Mademoiselle|GAMONAL|Emilie|60|Infirmier|C|Civil|||||S|Salarié|26020864000011||020000535|020000287|F020000535|CH CHAUNY||||94||SQ|Square|DES ANCIENS COMBATTANTS||02303 CHAUNY CEDEX|02303|02173|Chauny|||0323385500||0323392433|direction@ch-chauny.fr|||1020000535|ARS/ARS/ARS|
0|026104968|0026104968|||M|Monsieur|DOYEN|Nicolas|60|Infirmier|C|Civil|||||S|Salarié|77566179600034||020000303|750814030|F020000303|LA RENAISSANCE SANITAIRE||||1||R|Rue|VICTOR ET LOUISE MONTFORT||02310 VILLIERS ST DENIS|02310|02818|Villiers-Saint-Denis|||0323707522||0323707440|secretariatdirecteur@hlrs-villiers.net|||1020000303|ARS/ARS/ARS|
0|026105122|0026105122|||M|Monsieur|CHARLET|Patrick|60|Infirmier|C|Civil|||||S|Salarié|26020861600011||020000162|020000063|F020000162|CH SAINT-QUENTIN||||1||R|Rue|MICHEL DE L'HOSPITAL|BP 608|02321 ST QUENTIN CEDEX|02321|02691|Saint-Quentin|||0323067330||0323067301|directiongenerale@ch-stquentin.fr|||1020000162|ARS/ARS/ARS|
0|026105866|0026105866|||MME|Madame|DUPONT|LAURE|60|Infirmier|C|Civil|||||S|Salarié|||020005369|020011458|F020005369|CS ADMR SAINT-ERME-OUTRE-ET-RAMECOURT||||7||R|Rue|DES TORTUES ROYES||02820 ST ERME OUTRE ET RAMECOURT|02820|02676|Saint-Erme-Outre-et-Ramecourt|||0323226090||0366407313|cds.admr.sterme@orange.fr|||1020005369|ARS/ARS/ARS|
0|026106302|0026106302|||MLLE|Mademoiselle|PENON|Sandra|60|Infirmier|C|Civil|||||S|Salarié|26020863200018||020001061|020004404|F020001061|CH CHÂTEAU-THIERRY||||||RTE|Route|DE VERDILLY||02400 CHATEAU THIERRY|02400|02168|Château-Thierry|||0323696600||0323696900|direction@ch-chateau-thierry.fr|||1020001061|ARS/ARS/ARS|
0|026108142|0026108142|||MLLE|Mademoiselle|CHAMPENOIS|Aude|60|Infirmier|C|Civil|||||S|Salarié|26020871500011||020000394|020000253|F020000394|CH LAON||||33||R|Rue|MARCELIN BERTHELOT||02001 LAON CEDEX|02001|02408|Laon|||0323243333||0323243360|secret.direction@ch-laon.fr|||1020000394|ARS/ARS/ARS|
0|026110601|0026110601|||M|Monsieur|LUTIGNEAUX|Gautier|60|Infirmier|C|Civil|||||S|Salarié|26020034000016||020000543|020000295|F020000543|ETS PUB SANTÉ MENTALE DE L'AISNE||||||AV|Avenue|DE L'HÔPITAL||02320 PREMONTRE|02320|02619|Prémontré|||0323236666||0323236608|secretariat.direction@epsmd-aisne.fr|||1020000543|ARS/ARS/ARS|
0|026120188|0026120188|||M|Monsieur|BOUDERLIQUE|Christophe|60|Infirmier|C|Civil|||||S|Salarié|||020003943|780020715|F020003943|EHPAD ABEJ ÉTREILLERS||||1||HAM|Hameau|DE POMMERY||02590 ETREILLERS|02590|02296|Étreillers|||0323508050||0323687774|maison.pommery@abej-coquerel.org|||1020003943|ARS/ARS/ARS|
0|026126573|0026126573|||MME|Madame|HOSSON|Anais|60|Infirmier|C|Civil|||||||||||||||||||||||||||||||||||ARS//|
0|026131904|0026131904|||MME|Madame|LECLUSE|Joanne|60|Infirmier|C|Civil|||||S|Salarié|26020862400015||020000519|020000261|F020000519|CH SOISSONS||||46||AV|Avenue|DU GÉNÉRAL DE GAULLE||02209 SOISSONS CEDEX|02209|02722|Soissons|||0323757070||0323591646|secretariat.direction@ch-soissons.fr|||1020000519|ARS/ARS/ARS|
0|026133116|0026133116|||M|Monsieur|GOBERT|Lucas|60|Infirmier|C|Civil|||||S|Salarié|32345727500010||020010047|020001632|F020010047|HOPITAL PRIVE SAINT CLAUDE||||1||BD|Boulevard|DU DOCTEUR SCHWEITZER|CS 90448|02315 ST QUENTIN CEDEX|02315|02691|Saint-Quentin|||0323645002||0323645019|stephane.martin@elsan.care|||1020010047|ARS/ARS/ARS|
0|026911693|0026911693|||M|Monsieur|MAGNIN|Patrick|60|Infirmier|C|Civil|||||S|Salarié|26020034000016||020000543|020000295|F020000543|ETS PUB SANTÉ MENTALE DE L'AISNE||||||AV|Avenue|DE L'HÔPITAL||02320 PREMONTRE|02320|02619|Prémontré|||0323236666||0323236608|secretariat.direction@epsmd-aisne.fr|||1020000543|ARS/ARS/ARS|
0|028600534|0028600534|||MME|Madame|GADAULT|Catherine|86|Technicien de laboratoire médical|C|Civil|||||S|Salarié|40749374100018||020015285|020015277|F020015285|LBM BIOMÉDIQUAL BEAUTOR||||60||R|Rue|DE TERGNIER||02800 BEAUTOR|02800|02059|Beautor|||0323563468||0323567571|lam.beautor@laposte.net|||1020015285|ARS/ARS/ARS|
0|029803350|0029803350|||MME|Madame|HAUTENNE|Juliette|98|Manipulateur ERM|C|Civil|||||S|Salarié|26020862400015||020000519|020000261|F020000519|CH SOISSONS||||46||AV|Avenue|DU GÉNÉRAL DE GAULLE||02209 SOISSONS CEDEX|02209|02722|Soissons|||0323757070||0323591646|secretariat.direction@ch-soissons.fr|||1020000519|ARS/ARS/ARS|
0|032803074|0032803074|||MME|Madame|LEOST|Jade|28|Opticien-Lunetier|C|Civil|||||S|Salarié|||||||||||||||||||||||||||||ARS//|
0|036043214|0036043214|||MLLE|Mademoiselle|TRONCHE|Annick|60|Infirmier|C|Civil|||||S|Salarié|91725015100029||030781116|030000426|F030781116|HOPITAL PRIVE SAINT-FRANCOIS||||8||R|Rue|AMBROISE CROIZAT|BP 35 03103 MONTLUÇON CEDEX|03630 DESERTINES|03630|03098|Désertines|||0826399929||0470054464|arthaud@elsan.com|||1030781116|ARS/ARS/ARS|
0|036046548|0036046548|||MME|Madame|LONG|Danielle|60|Infirmier|C|Civil|||||S|Salarié|26030026400017||030000087|030780118|F030000087|CH JACQUES LACARIN VICHY||||||BD|Boulevard|DENIERE|BP 2757|03201 VICHY CEDEX|03201|03310|Vichy|||0470973333||0470973303||||1030000087|ARS/ARS/ARS|
0|036054138|0036054138|||MME|Madame|BRIGAUD|Marie-Claude|60|Infirmier|C|Civil|||||S|Salarié|77903965000014||030782619|030000509|F030782619|EHPAD ""VILLARS ACCUEIL""||||22||R|Rue|DE VILLARS||03000 MOULINS|03000|03190|Moulins|||0470463121|||villars.accueil@wanadoo.fr|||1030782619|ARS/ARS/ARS|
0|036055275|0036055275|||M|Monsieur|BOUGEROL|DIDIER|60|Infirmier|C|Civil|||||S|Salarié||260300173||030780100|F030780100|CENTRE HOSPITALIER DE MONTLUCON||||18||AV|Avenue|DU 8 MAI 1945||03109 MONTLUCON CEDEX|03109|03185|Montluçon|||0470023030||0470059748||||1030780100|ARS/ARS/ARS|
0|036061927|0036061927|||M|Monsieur|REVELIN|Nicolas|60|Infirmier|C|Civil|||||S|Salarié|26030383900013||030000061|030780092|F030000061|CENTRE HOSPITALIER DE MOULINS||||10||AV|Avenue|DU GENERAL DE GAULLE|BP 609|03006 MOULINS CEDEX|03006|03190|Moulins|||0470357777||0470357799|dircom@ch-moulins-yzeure.fr|||1030000061|ARS/ARS/ARS|
0|036063352|0036063352|||MME|Madame|SMIHI|Latifa|60|Infirmier|C|Civil|||||S|Salarié|26030493600016||030000160|030780282|F030000160|CENTRE HOSPITALIER SPECIALISE D'AINAY||||6|B|R|Rue|DU PAVE||03360 AINAY LE CHATEAU|03360|03003|Ainay-le-Château|||0470022626||0470022600||||1030000160|ARS/ARS/ARS|
0|036067916|0036067916|||MME|Madame|VERGNAUD|Sylvie|60|Infirmier|C|Civil|||||S|Salarié|26030498500013||030000012|030180020|F030000012|CH DE NERIS LES BAINS||||16||R|Rue|VOLTAIRE||03310 NERIS LES BAINS|03310|03195|Néris-les-Bains|||0470085300||0470085548||||1030000012|ARS/ARS/ARS|
0|036084846|0036084846|||MME|Madame|FRANCOIS|ANNE-SOPHIE|60|Infirmier|C|Civil|||||L|Libéral|||||C03608484600|CABINET INFIRMIER MME JOUVE||CABINET INFIRMIER MME JOUVE||16||PL|Place|VICTOR HUGO||03300 CUSSET|03300|||||0626166327||||||003608484600|ARS/CPAM/CPAM|
0|036091775|0036091775|||M|Monsieur|DENIS|Sylvain|60|Infirmier|C|Civil|||||L|Libéral|||||||||||||||||||||||||||||ARS/CPAM/CPAM|
0|036092385|0036092385|||MME|Madame|GERBAUD|Justine|60|Infirmier|C|Civil|||||S|Salarié|26030383900054||030780589|030780092|F030780589|CENTRE HOSPITALIER SPECIALISE YZEURE||||||RTE|Route|DE GENNETINES|BP 23|03401 YZEURE CEDEX|03401|03321|Yzeure|||0470203333|||dircom@ch-moulins-yzeure.fr|||1030780589|ARS/ARS/ARS|
0|036097350|0036097350|||M|Monsieur|LOISSIER|GUILLAUME|60|Infirmier|C|Civil|||||L|Libéral|||||||||||||||||||||||||||||ARS/CPAM/CPAM|
0|036103323|0036103323|||MME|Madame|BRUN|Elodie|60|Infirmier|C|Civil|||||S|Salarié|26030383900013||030000061|030780092|F030000061|CENTRE HOSPITALIER DE MOULINS||||10||AV|Avenue|DU GENERAL DE GAULLE|BP 609|03006 MOULINS CEDEX|03006|03190|Moulins|||0470357777||0470357799|dircom@ch-moulins-yzeure.fr|||1030000061|ARS/ARS/ARS|
0|036934503|0036934503|||M|Monsieur|QUAIRE|Jean-Claude|60|Infirmier|C|Civil|||||S|Salarié|26030493600016||030000160|030780282|F030000160|CENTRE HOSPITALIER SPECIALISE D'AINAY||||6|B|R|Rue|DU PAVE||03360 AINAY LE CHATEAU|03360|03003|Ainay-le-Château|||0470022626||0470022600||||1030000160|ARS/ARS/ARS|
0|036936102|0036936102|||M|Monsieur|BOURDEAU|Pierre|60|Infirmier|C|Civil|||||S|Salarié|26030493600016||030000160|030780282|F030000160|CENTRE HOSPITALIER SPECIALISE D'AINAY||||6|B|R|Rue|DU PAVE||03360 AINAY LE CHATEAU|03360|03003|Ainay-le-Château|||0470022626||0470022600||||1030000160|ARS/ARS/ARS|
0|036947398|0036947398|||MME|Madame|GALOS|Christine|60|Infirmier|C|Civil|||||S|Salarié|26030383900054||030780589|030780092|F030780589|CENTRE HOSPITALIER SPECIALISE YZEURE||||||RTE|Route|DE GENNETINES|BP 23|03401 YZEURE CEDEX|03401|03321|Yzeure|||0470203333|||dircom@ch-moulins-yzeure.fr|||1030780589|ARS/ARS/ARS|
0|038601803|0038601803|||MME|Madame|RAY|CHRISTINE|86|Technicien de laboratoire médical|C|Civil|||||S|Salarié||260300173||030780100|F030780100|CENTRE HOSPITALIER DE MONTLUCON||||18||AV|Avenue|DU 8 MAI 1945||03109 MONTLUCON CEDEX|03109|03185|Montluçon|||0470023030||0470059748||||1030780100|ARS/ARS/ARS|
0|039101126|0039101126|||MME|Madame|CALVARIN COGNAT|MARION|91|Orthophoniste|C|Civil|||||L|Libéral|||||C03910112600|CABINET MME CALVARIN||CABINET MME CALVARIN||11||PL|Place|JEAN JAURES||03200 VICHY|03200|||||0470967287||||||003910112600|ARS/CPAM/CPAM|
0|039200464|0039200464|||MLLE|Mademoiselle|PENIN|Allison|92|Orthoptiste|C|Civil|||||S|Salarié|||||||||||||||||||||||||||||ARS//|
0|039400791|0039400791|||MME|Madame|BUISSON|Rachel|94|Ergothérapeute|C|Civil|||||S|Salarié|||030780332|030007256|F030780332|IME LA MOSAIQUE||||73||RTE|Route|DE SAULCET||03500 ST POURCAIN SUR SIOULE|03500|03254|Saint-Pourçain-sur-Sioule|||0470453438||0470459495|ime.lamosaique@yahoo.fr|||1030780332|ARS/ARS/ARS|
0|046041943|0046041943|||MME|Madame|LESAGE|Corinne|60|Infirmier|C|Civil|||||S|Salarié|26050347900057||040000135|050002948|F040000135|CHI DES ALPES DU SUD SITE DE SISTERON||||4||AV|Avenue|DE LA LIBERATION|BP 99|04203 SISTERON CEDEX|04203|04209|Sisteron|||0492337000||0492337181|dafc@chicas-gap.fr|||1040000135|ARS/ARS/ARS|
0|046044863|0046044863|||MLLE|Mademoiselle|MARTIN|Eva|60|Infirmier|C|Civil|||||S|Salarié|26050347900057||040000135|050002948|F040000135|CHI DES ALPES DU SUD SITE DE SISTERON||||4||AV|Avenue|DE LA LIBERATION|BP 99|04203 SISTERON CEDEX|04203|04209|Sisteron|||0492337000||0492337181|dafc@chicas-gap.fr|||1040000135|ARS/ARS/ARS|
0|046045670|0046045670|||M|Monsieur|CUTTOLI|Antoine|60|Infirmier|C|Civil|||||S|Salarié|42451372900014||040788903|040000929|F040788903|EHPAD LES OPALINES||||||RTE|Route|DE VALENSOLE||04700 ORAISON|04700|04143|Oraison|||0492787003||0492706053|direction-oraison@orange.fr|||1040788903|ARS/ARS/ARS|
0|046045753|0046045753|||MME|Madame|SERVAIS|SOPHIE|60|Infirmier|C|Civil|||||L|Libéral|||||C04604575300|CABINET INFIRMIER MME SERVAIS||CABINET INFIRMIER MME SERVAIS|CABINET LE SISTERONAIS|2||AV|Avenue|DU STADE||04200 SISTERON|04200|||||0671149880||||||004604575300|ARS/CPAM/CPAM|
0|046050043|0046050043|||MME|Madame|MARCELIS BOUYER|Nicole|60|Infirmier|C|Civil|||||S|Salarié|||||||||||||||||||||||||||||ARS//|
0|046055281|0046055281|||MME|Madame|MICHALON|Soanala Sandrine|60|Infirmier|C|Civil|||||S|Salarié|26040016300077||040000093|040780215|F040000093|CENTRE HOSPITALIER DE MANOSQUE||||||R|Rue|AUGUSTE GIRARD|BP 108|04101 MANOSQUE CEDEX|04101|04112|Manosque|||0492734210||0492777848|direction@ch-manosque.fr|||1040000093|ARS/ARS/ARS|
0|046056008|0046056008|||MME|Madame|DELOHEN|Claire|60|Infirmier|C|Civil|||||S|Salarié|42451372900014||040788903|040000929|F040788903|EHPAD LES OPALINES||||||RTE|Route|DE VALENSOLE||04700 ORAISON|04700|04143|Oraison|||0492787003||0492706053|direction-oraison@orange.fr|||1040788903|ARS/ARS/ARS|
0|049136161|0049136161|||MME|Madame|CANAAN|BRIGITTE|91|Orthophoniste|C|Civil|||||L|Libéral|||||C04913616100|CABINET MME BAGGIONI||CABINET MME BAGGIONI||||RTE|Route|DE FORCALQUIER|LE JAS|04700 LA BRILLANNE|04700|||||0492765782||||||004913616100|ARS/CPAM/CPAM|
0|049637515|0049637515|||MME|Madame|ROJAS|Camille|96|Psychomotricien|C|Civil|||||S|Salarié|26040358900013||040000911|040788879|F040000911|CENTRE HOSPITALIER DE DIGNE LES BAINS||||||QUA|Quartier|SAINT CHRISTOPHE|BP 213|04003 DIGNE LES BAINS CEDEX|04003|04070|Digne-les-Bains|||0492301403||0492301400|direction@ch-digne.fr|||1040000911|ARS/ARS/ARS|
0|049836034|0049836034|||MME|Madame|VIDEAU|Emilie|98|Manipulateur ERM|C|Civil|||||S|Salarié|||||||||||||||||||||||||||||ARS//|
0|052801123|0052801123|||M|Monsieur|LAGIER-BERTRAND|ARNAUD|28|Opticien-Lunetier|C|Civil|||||L|Libéral|53950967900012||||C53950967900012|LES OPTICIENS DU GUILLESTROIS||LES OPTICIENS DU GUILLESTROIS||||IMM|Immeuble|LE PIOURE||05600 GUILLESTRE|05600|||||||||||353950967900012|ARS/CPAM/CPAM|
0|056019326|0056019326|||MME|Madame|FAURE|Brigitte|60|Infirmier|C|Civil|||||S|Salarié|43017105800174||050000041|130037815|F050000041|CENTRE MEDICAL RHONE AZUR BRIANCON||||70||RTE|Route|DE GRENOBLE||05105 BRIANCON CEDEX|05105|05023|Briançon|||0826464655||0492453490|julie.vanriet-margueron@ugecam-pacac.cnamts.fr|||1050000041|ARS/ARS/ARS|
0|056029481|0056029481|||MME|Madame|FREZET|Florence|60|Infirmier|C|Civil|||||S|Salarié|26050344600015||050002047|050005206|F050002047|EHPAD AUGUSTIN GUILLAUME||||||||LE QUEYRON||05600 GUILLESTRE|05600|05065|Guillestre|||0492454760||0492454761|direction.guilecrins@guilecrins.fr|||1050002047|ARS/ARS/ARS|
0|056035512|0056035512|||MME|Madame|BOUTERIN|Nadine|60|Infirmier|C|Civil|||||S|Salarié|77554975100151||050003979|050001544|F050003979|FAM ADSEA||||||RTE|Route|DE CHAUDEFEUILLE||05000 GAP|05000|05061|Gap|||0492518629|||a.beaugrand@adsea05.fr|||1050003979|ARS/ARS/ARS|
0|056036304|0056036304|||MLLE|Mademoiselle|BRUNET|Yvette|60|Infirmier|C|Civil|||||S|Salarié|43017105800174||050000041|130037815|F050000041|CENTRE MEDICAL RHONE AZUR BRIANCON||||70||RTE|Route|DE GRENOBLE||05105 BRIANCON CEDEX|05105|05023|Briançon|||0826464655||0492453490|julie.vanriet-margueron@ugecam-pacac.cnamts.fr|||1050000041|ARS/ARS/ARS|
0|056038813|0056038813|||M|Monsieur|SIMON|Didier|60|Infirmier|C|Civil|||||S|Salarié|26050347900016||050000348|050002948|F050000348|CHI DES ALPES DU SUD SITE DE GAP||||1||PL|Place|AUGUSTE MURET|BP 101|05007 GAP CEDEX|05007|05061|Gap|||0492406161||0492406103|dafc@chicas-gap.fr|||1050000348|ARS/ARS/ARS|
0|056038912|0056038912|||MLLE|Mademoiselle|MOSOLEFF|Christine|60|Infirmier|C|Civil|||||S|Salarié|43017105800174||050000041|130037815|F050000041|CENTRE MEDICAL RHONE AZUR BRIANCON||||70||RTE|Route|DE GRENOBLE||05105 BRIANCON CEDEX|05105|05023|Briançon|||0826464655||0492453490|julie.vanriet-margueron@ugecam-pacac.cnamts.fr|||1050000041|ARS/ARS/ARS|
0|056042708|0056042708|||MME|Madame|LUCOT|Marie-Eve|60|Infirmier|C|Civil|||||S|Salarié|26050347900016||050000348|050002948|F050000348|CHI DES ALPES DU SUD SITE DE GAP||||1||PL|Place|AUGUSTE MURET|BP 101|05007 GAP CEDEX|05007|05061|Gap|||0492406161||0492406103|dafc@chicas-gap.fr|||1050000348|ARS/ARS/ARS|
0|056158686|0056158686|||MLLE|Mademoiselle|MARCELLI|Camille|60|Infirmier|C|Civil|||||S|Salarié|26050004600016||050000231|050000116|F050000231|CH DES ESCARTONS DE BRIANCON||||24||AV|Avenue|ADRIEN DAURELLE||05105 BRIANCON CEDEX|05105|05023|Briançon|||0492252100||0492252109|daf@ch-briancon.fr|||1050000231|ARS/ARS/ARS|
0|056159171|0056159171|||MLLE|Mademoiselle|CHAIX|Charlène|60|Infirmier|C|Civil|||||S|Salarié|38595018300017||050000066|050000082|F050000066|CENTRE MEDICAL LA SOURCE||||||||||05260 ST LEGER LES MELEZES|05260|05149|Saint-Léger-les-Mélèzes|||0492504703||0492507019|infos@la-source-sa.com|||1050000066|ARS/ARS/ARS|
0|056161011|0056161011|||M|Monsieur|ROUVE|Aurélien|60|Infirmier|C|Civil|||||S|Salarié|43017105800174||050000041|130037815|F050000041|CENTRE MEDICAL RHONE AZUR BRIANCON||||70||RTE|Route|DE GRENOBLE||05105 BRIANCON CEDEX|05105|05023|Briançon|||0826464655||0492453490|julie.vanriet-margueron@ugecam-pacac.cnamts.fr|||1050000041|ARS/ARS/ARS|
0|056161532|0056161532|||MME|Madame|MICHEL|Malika|60|Infirmier|C|Civil|||||L|Libéral|||||||||||||||||||||||||||||ARS/CPAM/CPAM|
0|056162266|0056162266|||M|Monsieur|DUTERTRE|Stéphane|60|Infirmier|C|Civil|||||S|Salarié|||050002336|750015968|F050002336|FOYER DE VIE LES GUERINS||||||||||05130 SIGOYER|05130|05168|Sigoyer|||0492579900|||guerins@groupe-sos.org|||1050002336|ARS/ARS/ARS|
0|059100438|0059100438|||MME|Madame|BERTRAND|GISELE|91|Orthophoniste|C|Civil|||||L|Libéral|||||C05910043800|CABINET MME BERTRAND||CABINET MME BERTRAND|LE DAUPHINE A|2||R|Rue|SAINTE MARGUERITE||05000 GAP|05000|||||0492538687||||||005910043800|ARS/CPAM/CPAM|
0|059100933|0059100933|||MME|Madame|ROCHER|FREDERIQUE|91|Orthophoniste|C|Civil|||||L|Libéral|||||C05910093302|CABINET ORTHOPHONISTE MME ROCHER||CABINET ORTHOPHONISTE MME ROCHER||||ESPA|Espace|PLUG IN|ZAE LES CHALUS|04300 FORCALQUIER|04300|||||0767317167||||||005910093302|ARS/CPAM/CPAM|
0|059500512|0059500512|||MLLE|Mademoiselle|HAMMES|Julie|95|Diététicien|C|Civil|||||S|Salarié|26050004600016||050000231|050000116|F050000231|CH DES ESCARTONS DE BRIANCON||||24||AV|Avenue|ADRIEN DAURELLE||05105 BRIANCON CEDEX|05105|05023|Briançon|||0492252100||0492252109|daf@ch-briancon.fr|||1050000231|ARS/ARS/ARS|
0|062600630|0062600630|||M|Monsieur|BRIVES|Pierre|26|Audioprothésiste|C|Civil|||||S|Salarié|||||||||||||||||||||||||||||ARS//|
0|062806492|0062806492|||MME|Madame|MONGIN|FLORIANE|28|Opticien-Lunetier|C|Civil|||||S|Salarié|80306176100026||||C80306176100026|SARL VICAND - KRYS||SARL VICAND - KRYS||606||BD|Boulevard|DU MERCANTOUR|CC CARREFOUR LINGOSTIERE|06200 NICE|06200|||||||||||380306176100026|ARS/Variable/Variable|
0|062809504|0062809504|||MME|Madame|KHOURY|EVA|28|Opticien-Lunetier|C|Civil|||||S|Salarié|52460525000017||||C52460525000017|SAS SUDOPTIC||SAS SUDOPTIC||22||BD|Boulevard|MARECHAL LECLERC||06600 ANTIBES|06600|||||||||||352460525000017|ARS/Variable/Variable|
0|062810213|0062810213|||MME|Madame|EGLENNE|MARION|28|Opticien-Lunetier|C|Civil|||||S|Salarié|49278795704431||||C49278795704431|GRANDVISION FRANCE - GO127||GRANDVISION FRANCE - GO127||122||R|Rue|D'ANTIBES||06400 CANNES|06400|||99000|France|||||||349278795704431|ARS/Variable/Variable|
0|066005752|0066005752|||MLLE|Mademoiselle|FOLLAIN|Isabelle|60|Infirmier|C|Civil|||||S|Salarié|26060015000015||060000510|060780954|F060000510|CH D'ANTIBES JUAN LES PINS||||107||AV|Avenue|DE NICE||06606 ANTIBES CEDEX|06606|06004|Antibes|||0497247890||0497247797|secretariat.direction@ch-antibes.fr|||1060000510|ARS/ARS/ARS|
0|066011867|0066011867|||MME|Madame|MARTIN|DANIELLE|60|Infirmier|C|Civil|||||L|Libéral|||||C06601186700|CABINET MME MARTIN||CABINET MME MARTIN||12||BD|Boulevard|AUGUSTE RAYNAUD||06100 NICE|06100|||||0493513434||||||006601186700|ARS/CPAM/CPAM|
0|066014523|0066014523|||MLLE|Mademoiselle|CICERO|Laurie|60|Infirmier|C|Civil|||||S|Salarié|26060020000018||060000544|060780988|F060000544|CH DE CANNES SIMONE VEIL||||15||AV|Avenue|DES BROUSSAILLES|CS 50008|06414 CANNES CEDEX|06414|06029|Cannes|||0493697001||0493697009|direction@ch-cannes.fr|||1060000544|ARS/ARS/ARS|
0|066025404|0066025404|||MLLE|Mademoiselle|CATANZARITI|Gabrielle|60|Infirmier|C|Civil|||||S|Salarié|26060070500099||060785003|060785011|F060785003|CHU DE NICE HOPITAL PASTEUR||||30||AV|Avenue|DE LA VOIE ROMAINE||06000 NICE|06000|06088|Nice|||0492037609||0492038335|direction-pasteur@chu-nice.fr|||1060785003|ARS/ARS/ARS|
0|066029059|0066029059|||MLLE|Mademoiselle|MARTIN|Alexandra|60|Infirmier|C|Civil|||||S|Salarié|26060020000018||060000544|060780988|F060000544|CH DE CANNES SIMONE VEIL||||15||AV|Avenue|DES BROUSSAILLES|CS 50008|06414 CANNES CEDEX|06414|06029|Cannes|||0493697001||0493697009|direction@ch-cannes.fr|||1060000544|ARS/ARS/ARS|
0|066032822|0066032822|||MME|Madame|ABDENNABI|Sarah|60|Infirmier|C|Civil|||||S|Salarié|26060020000018||060000544|060780988|F060000544|CH DE CANNES SIMONE VEIL||||15||AV|Avenue|DES BROUSSAILLES|CS 50008|06414 CANNES CEDEX|06414|06029|Cannes|||0493697001||0493697009|direction@ch-cannes.fr|||1060000544|ARS/ARS/ARS|
0|066034919|0066034919|||MLLE|Mademoiselle|KULIKOWSKA|Anna|60|Infirmier|C|Civil|||||S|Salarié|26060070500099||060785003|060785011|F060785003|CHU DE NICE HOPITAL PASTEUR||||30||AV|Avenue|DE LA VOIE ROMAINE||06000 NICE|06000|06088|Nice|||0492037609||0492038335|direction-pasteur@chu-nice.fr|||1060785003|ARS/ARS/ARS|
0|066041260|0066041260|||M|Monsieur|LONGMAR|Yoann|60|Infirmier|C|Civil|||||S|Salarié|26060020000018||060000544|060780988|F060000544|CH DE CANNES SIMONE VEIL||||15||AV|Avenue|DES BROUSSAILLES|CS 50008|06414 CANNES CEDEX|06414|06029|Cannes|||0493697001||0493697009|direction@ch-cannes.fr|||1060000544|ARS/ARS/ARS|
0|066043936|0066043936|||MME|Madame|GOMEZ|Laure|60|Infirmier|C|Civil|||||S|Salarié|26060015000015||060000510|060780954|F060000510|CH D'ANTIBES JUAN LES PINS||||107||AV|Avenue|DE NICE||06606 ANTIBES CEDEX|06606|06004|Antibes|||0497247890||0497247797|secretariat.direction@ch-antibes.fr|||1060000510|ARS/ARS/ARS|
0|066054503|0066054503|||MME|Madame|CONIL|Laurence|60|Infirmier|C|Civil|||||S|Salarié|69642130400028||060785219|060780608|F060785219|CLINIQUE PLEIN CIEL||||122||AV|Avenue|DU DOCTEUR MAURICE DONAT|BP 1250|06254 MOUGINS CEDEX|06254|06085|Mougins|||0497166500||0497166501|clinique.plein.ciel@tzanck.org|||1060785219|ARS/ARS/ARS|
0|066058595|0066058595|||M|Monsieur|LANGUE|Willem|60|Infirmier|C|Civil|||||S|Salarié|95780871000017||060781200|060000635|F060781200|CLINIQUE SAINT ANTOINE|||2 AV DE RIMIEZ 06100 NICE|7||AV|Avenue|DURANTE|BP 1211|06004 NICE CEDEX 1|06004|06088|Nice|||0493167600||0493167799|dir@clinique-saint-antoine.com|||1060781200|ARS/ARS/ARS|
0|066061185|0066061185|||MME|Madame|FREGUIN|Cyndie|60|Infirmier|C|Civil|||||S|Salarié|26060020000018||060000544|060780988|F060000544|CH DE CANNES SIMONE VEIL||||15||AV|Avenue|DES BROUSSAILLES|CS 50008|06414 CANNES CEDEX|06414|06029|Cannes|||0493697001||0493697009|direction@ch-cannes.fr|||1060000544|ARS/ARS/ARS|
0|066072711|0066072711|||MME|Madame|DASCALU|Daniela|60|Infirmier|C|Civil|||||||||||||||||||||||||||||||||||ARS//|
0|066076704|0066076704|||MME|Madame|CORRADI|Marine|60|Infirmier|C|Civil|||||S|Salarié|26060070500073||060789195|060785011|F060789195|CHU DE NICE HOPITAL DE L'ARCHET||||151||RTE|Route|SAINT ANTOINE DE GINESTIERE|BP 79|06200 NICE|06200|06088|Nice|||0492035525||0492035760|dg@chu-nice.fr|||1060789195|ARS/ARS/ARS|
